Bluesky Unfollowing Negative Follows | Warp and Weft Data
…
# Define the path to your database
db_path <- "C:/Users/steph/OneDrive/warp_and_weft_data/content/blog/bsky_sentiment_index/bluesky_data.duckdb"

# Call the function with the database path
relationships <- get_follow_relationships(db_path)

## Fetching your followers...
## Fetching users you are following...
## Follow relationships have been stored in the database.

# View the results
print(relationships)

## # A tibble: 972 × 6
##    did                            handle displayName description createdAt tag  
##    <chr>                          <chr>  <chr>       <chr>       <chr>     <chr>
##  1 did:plc:qofqpqau42nmrqgtcqpr4… tooma… "seven ex … "humanoid … 2024-11-… wwd-…
##  2 did:plc:4dlr3yhphrh6vc7q627mc… aklot… "Alex Klot… "Physics p… 2023-06-… wwd-…
##  3 did:plc:yz7ogsukyb7j6mup6udg5… annag… "Anna Hugh… "\U0001f30… 2023-05-… wwd-…
##  4 did:plc:uwscsrt6wq2pahbzef2nc… sanja… "sanjana c… "nuclear a… 2023-04-… wwd-…
##  5 did:plc:spanui6736cbvrbrci2hx… astro… "Brandon B… "computati… 2023-06-… wwd-…
##  6 did:plc:5ufuqy3qstws4yzjuixf4… frogs… "anna !!! … "| she/her… 2023-04-… wwd-…
##  7 did:plc:gvcmzzacbgwgttvcxzytp… astro… "athena, g… "astrophys… 2023-08-… wwd-…
##  8 did:plc:my5x3kz6owobc5mcncdo4… adeen… "Dr. Adeen… "Planetary… 2023-06-… wwd-…
##  9 did:plc:2bppr6lzjxvpcrp5lho6j… focus… "katie"     "opinions … 2023-04-… wwd-…
## 10 did:plc:qzmgfnhb76ffudt7utnmy… yonib… "Yoni Bran… "astrologe… 2023-05-… wwd-…
## # ℹ 962 more rows
…
