Tidy Tuesday: 2024-11-19 | Warp and Weft Data
…
## Warning in camcorder::gg_record(dir = here::here("temp_plots"), device = "png",
## : Writing to a folder that already exists. gg_playback may use more files than
## intended!

### |- resolution ----
showtext_opts(dpi = 320, regular.wt = 300, bold.wt = 800)

bobsburgersR::transcript_data

## # A tibble: 181,031 × 6
##    season episode title        line raw_text                            dialogue
##     <dbl>   <dbl> <chr>       <dbl> <chr>                               <chr>   
##  1      1       1 Human Flesh     1 <NA>                                <NA>    
##  2      1       1 Human Flesh     2 <NA>                                <NA>    
##  3      1       1 Human Flesh     3 <NA>                                <NA>    
##  4      1       1 Human Flesh     4 Listen, pep talk.                   Listen,…
##  5      1       1 Human Flesh     5 Big day today.                      Big day…
##  6      1       1 Human Flesh     6 It's our grand re-re-re-opening.    It's ou…
##  7      1       1 Human Flesh     7 It's labor day weekend, And it loo… It's la…
##  8      1       1 Human Flesh     8 So we have to-- Big day for anothe… So we h…
##  9      1       1 Human Flesh     9 Go ahead, sorry.                    Go ahea…
## 10      1       1 Human Flesh    10 Go ahead, do your pep.              Go ahea…
## # ℹ 181,021 more rows
…
imdb_wikipedia_data <- bobsburgersR::imdb_wikipedia_data

imdb_wikipedia_data 

## # A tibble: 275 × 11
##    episode_overall imdb_aired_date  year season episode imdb_title        rating
##              <dbl> <date>          <dbl>  <dbl>   <dbl> <chr>              <dbl>
##  1               1 2011-01-08       2011      1       1 Human Flesh          7.7
##  2               2 2011-01-15       2011      1       2 Crawl Space          8.1
##  3               3 2011-01-22       2011      1       3 Sacred Cow           7.5
##  4               4 2011-02-12       2011      1       4 Sexy Dance Fight…    7.4
##  5               5 2011-02-19       2011      1       5 Hamburger Dinner…    7.5
##  6               6 2011-03-05       2011      1       6 Sheesh! Cab, Bob?    8.3
##  7               7 2011-03-12       2011      1       7 Bed & Breakfast      7.5
##  8               8 2011-03-19       2011      1       8 Art Crawl            7.9
##  9               9 2011-03-26       2011      1       9 Spaghetti Wester…    7.6
## 10              10 2011-04-09       2011      1      10 Burger War           7.7
## # ℹ 265 more rows
## # ℹ 4 more variables: synopsis <chr>, wikipedia_directed_by <chr>,
## #   wikipedia_written_by <chr>, wikipedia_viewers <dbl>
…
